EESchema Schematic File Version 4
EELAYER 30 0
EELAYER END
$Descr A4 11693 8268
encoding utf-8
Sheet 1 1
Title ""
Date ""
Rev ""
Comp ""
Comment1 ""
Comment2 ""
Comment3 ""
Comment4 ""
$EndDescr
$Comp
L Amplifier_Operational:LM741 U1
U 1 1 60BDAD0C
P 5350 2900
F 0 "U1" H 5694 2946 50  0000 L CNN
F 1 "LM741" H 5694 2855 50  0000 L CNN
F 2 "SMD_Packages:SOIC-8-N" H 5400 2950 50  0001 C CNN
F 3 "http://www.ti.com/lit/ds/symlink/lm741.pdf" H 5500 3050 50  0001 C CNN
	1    5350 2900
	1    0    0    -1  
$EndComp
$Comp
L Connector:Conn_01x02_Male J1
U 1 1 60BE00B2
P 3550 2850
F 0 "J1" H 3658 3031 50  0000 C CNN
F 1 "Vin" H 3658 2940 50  0000 C CNN
F 2 "Connectors:Banana_Jack_2Pin" H 3550 2850 50  0001 C CNN
F 3 "~" H 3550 2850 50  0001 C CNN
	1    3550 2850
	1    0    0    -1  
$EndComp
$Comp
L power:PWR_FLAG #FLG0101
U 1 1 60BE1056
P 4450 2000
F 0 "#FLG0101" H 4450 2075 50  0001 C CNN
F 1 "PWR_FLAG" H 4450 2173 50  0000 C CNN
F 2 "" H 4450 2000 50  0001 C CNN
F 3 "~" H 4450 2000 50  0001 C CNN
	1    4450 2000
	1    0    0    -1  
$EndComp
$Comp
L power:PWR_FLAG #FLG0102
U 1 1 60BE21CA
P 5850 2000
F 0 "#FLG0102" H 5850 2075 50  0001 C CNN
F 1 "PWR_FLAG" H 5850 2173 50  0000 C CNN
F 2 "" H 5850 2000 50  0001 C CNN
F 3 "~" H 5850 2000 50  0001 C CNN
	1    5850 2000
	1    0    0    -1  
$EndComp
$Comp
L power:PWR_FLAG #FLG0103
U 1 1 60BE22C7
P 3350 2000
F 0 "#FLG0103" H 3350 2075 50  0001 C CNN
F 1 "PWR_FLAG" H 3350 2173 50  0000 C CNN
F 2 "" H 3350 2000 50  0001 C CNN
F 3 "~" H 3350 2000 50  0001 C CNN
	1    3350 2000
	1    0    0    -1  
$EndComp
$Comp
L Connector:Conn_01x02_Male J2
U 1 1 60BE27DD
P 7250 3100
F 0 "J2" H 7222 2982 50  0000 R CNN
F 1 "Vout" H 7222 3073 50  0000 R CNN
F 2 "Connectors:Banana_Jack_2Pin" H 7250 3100 50  0001 C CNN
F 3 "~" H 7250 3100 50  0001 C CNN
	1    7250 3100
	-1   0    0    1   
$EndComp
$Comp
L Connector:Conn_01x03_Male J3
U 1 1 60BE2987
P 3650 4450
F 0 "J3" H 3758 4731 50  0000 C CNN
F 1 "Conn_01x03_Male" H 3758 4640 50  0000 C CNN
F 2 "Connectors:Banana_Jack_3Pin" H 3650 4450 50  0001 C CNN
F 3 "~" H 3650 4450 50  0001 C CNN
	1    3650 4450
	1    0    0    -1  
$EndComp
$Comp
L Device:R_US R2
U 1 1 60BE36C2
P 6050 3450
F 0 "R2" H 6118 3496 50  0000 L CNN
F 1 "5.15K" H 6118 3405 50  0000 L CNN
F 2 "Resistors_THT:R_Axial_DIN0204_L3.6mm_D1.6mm_P5.08mm_Vertical" V 6090 3440 50  0001 C CNN
F 3 "~" H 6050 3450 50  0001 C CNN
	1    6050 3450
	1    0    0    -1  
$EndComp
$Comp
L Device:R_US R1
U 1 1 60BE41A8
P 6050 4000
F 0 "R1" H 6118 4046 50  0000 L CNN
F 1 "10K" H 6118 3955 50  0000 L CNN
F 2 "Resistors_THT:R_Axial_DIN0204_L3.6mm_D1.6mm_P5.08mm_Vertical" V 6090 3990 50  0001 C CNN
F 3 "~" H 6050 4000 50  0001 C CNN
	1    6050 4000
	1    0    0    -1  
$EndComp
Wire Wire Line
	5650 2900 6050 2900
Wire Wire Line
	6800 2900 6800 3000
Wire Wire Line
	6800 3000 7050 3000
Wire Wire Line
	6050 2900 6050 3300
Connection ~ 6050 2900
Wire Wire Line
	6050 2900 6800 2900
Wire Wire Line
	6050 3600 6050 3700
Wire Wire Line
	5050 3000 4850 3000
Wire Wire Line
	4850 3000 4850 3700
Wire Wire Line
	4850 3700 6050 3700
Connection ~ 6050 3700
Wire Wire Line
	6050 3700 6050 3850
Wire Wire Line
	3750 2850 4050 2850
Wire Wire Line
	4050 2850 4050 2800
Wire Wire Line
	4050 2800 5050 2800
Wire Wire Line
	5250 3450 5250 3200
$Comp
L power:GND #PWR0103
U 1 1 60BE7716
P 3850 3150
F 0 "#PWR0103" H 3850 2900 50  0001 C CNN
F 1 "GND" H 3855 2977 50  0000 C CNN
F 2 "" H 3850 3150 50  0001 C CNN
F 3 "" H 3850 3150 50  0001 C CNN
	1    3850 3150
	1    0    0    -1  
$EndComp
$Comp
L power:GND #PWR0104
U 1 1 60BE7F76
P 6050 4250
F 0 "#PWR0104" H 6050 4000 50  0001 C CNN
F 1 "GND" H 6055 4077 50  0000 C CNN
F 2 "" H 6050 4250 50  0001 C CNN
F 3 "" H 6050 4250 50  0001 C CNN
	1    6050 4250
	1    0    0    -1  
$EndComp
$Comp
L power:GND #PWR0105
U 1 1 60BE820F
P 6850 3300
F 0 "#PWR0105" H 6850 3050 50  0001 C CNN
F 1 "GND" H 6855 3127 50  0000 C CNN
F 2 "" H 6850 3300 50  0001 C CNN
F 3 "" H 6850 3300 50  0001 C CNN
	1    6850 3300
	1    0    0    -1  
$EndComp
$Comp
L power:GND #PWR0106
U 1 1 60BE83AA
P 5850 2100
F 0 "#PWR0106" H 5850 1850 50  0001 C CNN
F 1 "GND" H 5855 1927 50  0000 C CNN
F 2 "" H 5850 2100 50  0001 C CNN
F 3 "" H 5850 2100 50  0001 C CNN
	1    5850 2100
	1    0    0    -1  
$EndComp
$Comp
L power:GND #PWR0107
U 1 1 60BE8719
P 4650 4450
F 0 "#PWR0107" H 4650 4200 50  0001 C CNN
F 1 "GND" H 4655 4277 50  0000 C CNN
F 2 "" H 4650 4450 50  0001 C CNN
F 3 "" H 4650 4450 50  0001 C CNN
	1    4650 4450
	1    0    0    -1  
$EndComp
Wire Wire Line
	3350 2000 3350 2250
Wire Wire Line
	4450 2250 4450 2000
Wire Wire Line
	5850 2000 5850 2100
Wire Wire Line
	6850 3300 6850 3100
Wire Wire Line
	6850 3100 7050 3100
Wire Wire Line
	6050 4250 6050 4150
Wire Wire Line
	4650 4450 3850 4450
Wire Wire Line
	3850 4350 4300 4350
Wire Wire Line
	4300 4350 4300 4100
Wire Wire Line
	3850 4550 4150 4550
Wire Wire Line
	4150 4550 4150 4600
Wire Wire Line
	3750 2950 3850 2950
Wire Wire Line
	3850 2950 3850 3150
NoConn ~ 5350 3200
NoConn ~ 5450 3200
Wire Wire Line
	5250 2600 5250 2350
$Comp
L power:+24V #PWR?
U 1 1 60C404CA
P 4450 2250
F 0 "#PWR?" H 4450 2100 50  0001 C CNN
F 1 "+24V" H 4465 2423 50  0000 C CNN
F 2 "" H 4450 2250 50  0001 C CNN
F 3 "" H 4450 2250 50  0001 C CNN
	1    4450 2250
	-1   0    0    1   
$EndComp
$Comp
L power:+24V #PWR?
U 1 1 60C408D4
P 4150 4600
F 0 "#PWR?" H 4150 4450 50  0001 C CNN
F 1 "+24V" H 4165 4773 50  0000 C CNN
F 2 "" H 4150 4600 50  0001 C CNN
F 3 "" H 4150 4600 50  0001 C CNN
	1    4150 4600
	-1   0    0    1   
$EndComp
$Comp
L power:+24V #PWR?
U 1 1 60C41018
P 5250 2350
F 0 "#PWR?" H 5250 2200 50  0001 C CNN
F 1 "+24V" H 5265 2523 50  0000 C CNN
F 2 "" H 5250 2350 50  0001 C CNN
F 3 "" H 5250 2350 50  0001 C CNN
	1    5250 2350
	1    0    0    -1  
$EndComp
$Comp
L power:-24V #PWR?
U 1 1 60C41869
P 5250 3450
F 0 "#PWR?" H 5250 3550 50  0001 C CNN
F 1 "-24V" H 5265 3623 50  0000 C CNN
F 2 "" H 5250 3450 50  0001 C CNN
F 3 "" H 5250 3450 50  0001 C CNN
	1    5250 3450
	-1   0    0    1   
$EndComp
$Comp
L power:-24V #PWR?
U 1 1 60C41FC4
P 3350 2250
F 0 "#PWR?" H 3350 2350 50  0001 C CNN
F 1 "-24V" H 3365 2423 50  0000 C CNN
F 2 "" H 3350 2250 50  0001 C CNN
F 3 "" H 3350 2250 50  0001 C CNN
	1    3350 2250
	-1   0    0    1   
$EndComp
$Comp
L power:-24V #PWR?
U 1 1 60C42356
P 4300 4100
F 0 "#PWR?" H 4300 4200 50  0001 C CNN
F 1 "-24V" H 4315 4273 50  0000 C CNN
F 2 "" H 4300 4100 50  0001 C CNN
F 3 "" H 4300 4100 50  0001 C CNN
	1    4300 4100
	1    0    0    -1  
$EndComp
$EndSCHEMATC
